{
  "name": "Meal",
  "fields": [
    {
      "fieldName": "name",
      "fieldType": "String"
    },
    {
      "fieldName": "description",
      "fieldType": "String"
    },
    {
      "fieldName": "price",
      "fieldType": "Double"
    },
    {
      "fieldName": "preparationTime",
      "fieldType": "Integer"
    },
    {
      "fieldName": "meanRate",
      "fieldType": "Double"
    }
  ],
  "relationships": [
    {
      "relationshipType": "one-to-many",
      "otherEntityName": "foodType",
      "otherEntityRelationshipName": "meal",
      "relationshipName": "foodType"
    },
    {
      "relationshipType": "many-to-one",
      "otherEntityName": "restaurant",
      "otherEntityRelationshipName": "meal",
      "relationshipName": "restaurant",
      "otherEntityField": "id"
    }
  ],
  "changelogDate": "20201201134726",
  "entityTableName": "meal",
  "dto": "no",
  "pagination": "no",
  "service": "no",
  "jpaMetamodelFiltering": false,
  "fluentMethods": true,
  "readOnly": false,
  "embedded": false,
  "clientRootFolder": "",
  "applications": ["deliveroClone"]
}
